DATA 101 Project_1
…
final_for_profit <- na.omit(for_profit_new)

#final_for_profit
 df <-data_frame(final_for_profit)

## Warning: `data_frame()` is deprecated as of tibble 1.1.0.
## Please use `tibble()` instead.
## This warning is displayed once every 8 hours.
## Call `lifecycle::last_warnings()` to see where this warning was generated.

df

## # A tibble: 189 x 1
##    final_for_profit                    
##    <chr>                               
##  1 Academy of Art University           
##  2 American Career College             
##  3 American College of Education       
##  4 American InterContinental University
##  5 Career Education Corporation        
##  6 American Military University        
##  7 American National University        
##  8 American University                 
##  9 National American University        
## 10 American Public University          
## #  with 179 more rows

The webscraping exercise produced a list of over 1,000 schools. We decided to take a random sample of n=35 schools on that list, which also appeared in our dataset. We selected 35 schools so that we would comply with the Central Limit Theorem. The result of the randomization we ran on the webscraped data is below. Each of us compared a portion of the list with our dataset to ensure that all of our selections were present on both lists. We ran multiple randomizations until we had a consistent list with 35 schools appearing on both datasets. Some of the randomly chosen schools had multiple locations, as is shown in the example set of schools below. The final list of schools was geographically diverse.

sample_n(df,35)

## # A tibble: 35 x 1
##    final_for_profit                                    
##    <chr>                                               
##  1 Northwestern College                                
##  2 Southwestern College                                
##  3 California Northstate University College of Medicine
##  4 Brookline College                                   
##  5 American InterContinental University                
##  6 University of California, Berkeley                  
##  7 Florida Coastal School of Law                       
##  8 Keller School of Management                         
##  9 Miami International University of Art and Design    
## 10 Southwestern University                             
## #  with 25 more rows
…
University of Houston Example

What we would like to do is combine each of the four into one set of 7 lines with the averages calculated for each categorys enrollment and enrollment percentage.

35 Randomly selected not-for-profit educational institutions

For consistency of methodology we decided to select 35 schools from the not-for-profit educational institutions to compare to the 35 randomly selected for-profit schools. The final list of randomly selected not-for-profit schools was also geographically diverse.

sample_n(diversity_new,35)

## # A tibble: 35 x 6
##    name           total_enrollment state   category  enrollment enrollment_perc
##    <chr>                     <dbl> <chr>   <chr>          <dbl>            <dbl>
##  1 Vernon College             2989 Texas   Asian             54            1.81 
##  2 American Cons               48 Califo Two Or M          2            4.17 
##  3 Lamar State C             2259 Texas   Two Or M          0            0    
##  4 Rochester Com             5894 Minnes Women           3592           60.9  
##  5 San Diego Chr              966 Califo Asian             21            2.17 
##  6 Greensboro Co              905 North  Women            471           52.0  
##  7 Saint Louis C            21218 Missou Unknown          173            0.815
##  8 Yeshiva Beth                70 Michig Two Or M          0            0    
##  9 Grand Valley             25094 Michig Women          14961           59.6  
## 10 Brevard Commu            15931 Florida Unknown          218            1.37 
## #  with 25 more rows
…
